<?xml version="1.0" encoding="UTF-8" standalone="no"?>
<svg width="11px" height="11px" viewBox="0 0 11 11" version="1.1" xmlns="http://www.w3.org/2000/svg" xmlns:xlink="http://www.w3.org/1999/xlink" xmlns:sketch="http://www.bohemiancoding.com/sketch/ns">
    <!-- Generator: Sketch 3.3.2 (12043) - http://www.bohemiancoding.com/sketch -->
    <title>icon settings@2x</title>
    <desc>Created with Sketch.</desc>
    <defs></defs>
    <g id="Admin" stroke="none" stroke-width="1" fill="none" fill-rule="evenodd" sketch:type="MSPage">
        <g id="Admin/Workflow-Dashboard" sketch:type="MSArtboardGroup" transform="translate(-26.000000, -209.000000)" fill="#F5F5F5">
            <g id="Sidebar" sketch:type="MSLayerGroup" transform="translate(0.000000, 50.000000)">
                <g id="Tasks-Navigation" transform="translate(0.000000, 57.000000)" sketch:type="MSShapeGroup">
                    <g id="Group" transform="translate(24.000000, 10.000000)">
                        <g id="icon-settings" transform="translate(2.000000, 92.000000)">
                            <path d="M6.94613333,10.9203111 C6.89871111,10.9203111 6.85226667,10.9071111 6.81217778,10.8802222 C6.75302222,10.8416 6.71391111,10.7795111 6.70413333,10.7091111 C6.62053333,10.1082667 6.1028,9.65604444 5.5,9.65604444 C4.8972,9.65604444 4.37946667,10.1092444 4.29586667,10.7091111 C4.28608889,10.7795111 4.24648889,10.8416 4.18782222,10.8802222 C4.12866667,10.9193333 4.05631111,10.9310667 3.98786667,10.9110222 C3.54737778,10.7878222 3.1284,10.6157333 2.74168889,10.3972 C2.68057778,10.3629778 2.63706667,10.3038222 2.6224,10.2339111 C2.60773333,10.164 2.62435556,10.0926222 2.66688889,10.0373778 C3.03355556,9.55337778 2.98808889,8.866 2.56128889,8.43871111 C2.14377778,8.02217778 1.43391111,7.97866667 0.962622222,8.3336 C0.9064,8.37662222 0.835511111,8.39177778 0.7656,8.3776 C0.696666667,8.3644 0.637022222,8.3204 0.602311111,8.25928889 C0.383288889,7.87062222 0.210222222,7.45213333 0.088,7.01311111 C0.0689333333,6.94417778 0.0801777778,6.87182222 0.1188,6.81266667 C0.157422222,6.75448889 0.22,6.7144 0.289422222,6.70462222 C0.890266667,6.62102222 1.34297778,6.10328889 1.34297778,5.5 C1.34297778,4.89671111 0.890755556,4.37995556 0.289911111,4.29635556 C0.22,4.28706667 0.157911111,4.24697778 0.119288889,4.18831111 C0.0806666667,4.12915556 0.0689333333,4.05582222 0.088,3.98884444 C0.210222222,3.54982222 0.383288889,3.12937778 0.6028,2.74168889 C0.637511111,2.68057778 0.697155556,2.63657778 0.766088889,2.6224 C0.835511111,2.60871111 0.906888889,2.62435556 0.963111111,2.66737778 C1.43293333,3.0228 2.14377778,2.9788 2.56177778,2.56128889 C2.98857778,2.13448889 3.03355556,1.44808889 2.66737778,0.962622222 C2.62484444,0.9064 2.60871111,0.833555556 2.62288889,0.766088889 C2.63706667,0.696666667 2.68057778,0.637022222 2.74217778,0.6028 C3.12888889,0.385244444 3.54786667,0.212177778 3.98835556,0.0889777778 C4.0568,0.0689333333 4.12915556,0.0806666667 4.18831111,0.119777778 C4.24746667,0.158888889 4.28657778,0.220488889 4.29635556,0.290888889 C4.37946667,0.891733333 4.8972,1.34395556 5.5,1.34395556 C6.10231111,1.34395556 6.62053333,0.890755556 6.70413333,0.290888889 C6.71391111,0.220488889 6.754,0.1584 6.81217778,0.119777778 C6.87133333,0.0816444444 6.94466667,0.0689333333 7.01213333,0.0889777778 C7.45262222,0.212177778 7.87208889,0.384266667 8.2588,0.6028 C8.31991111,0.637022222 8.36293333,0.696177778 8.3776,0.766088889 C8.39226667,0.836 8.37564444,0.907377778 8.33311111,0.962622222 C7.96644444,1.44662222 8.0124,2.134 8.43871111,2.56128889 C8.85622222,2.9788 9.56608889,3.02182222 10.0373778,2.66737778 C10.0931111,2.62435556 10.1664444,2.61017778 10.2344,2.6224 C10.3033333,2.63608889 10.3629778,2.68057778 10.3976889,2.74168889 C10.6162222,3.12937778 10.7897778,3.54835556 10.9124889,3.98884444 C10.9315556,4.0568 10.9198222,4.12915556 10.8812,4.18831111 C10.8430667,4.24648889 10.78,4.28657778 10.7105778,4.29635556 C10.1097333,4.37995556 9.65702222,4.8972 9.65702222,5.5 C9.65702222,6.10182222 10.1107111,6.62102222 10.7105778,6.70462222 C10.7804889,6.7144 10.8430667,6.75448889 10.8812,6.81266667 C10.9198222,6.87182222 10.9310667,6.94515556 10.912,7.01311111 C10.7897778,7.45115556 10.6167111,7.87062222 10.3976889,8.25928889 C10.3629778,8.3204 10.3033333,8.36342222 10.2344,8.3776 C10.1649778,8.39177778 10.0931111,8.37564444 10.0373778,8.3336 C9.56413333,7.97622222 8.85964444,8.01924444 8.43871111,8.43871111 C8.0124,8.86551111 7.96693333,9.55191111 8.33311111,10.0373778 C8.37564444,10.0936 8.39177778,10.1664444 8.3776,10.2339111 C8.36391111,10.3033333 8.31991111,10.3629778 8.2588,10.3972 C7.87208889,10.6147556 7.45311111,10.7878222 7.01213333,10.9110222 C6.99013333,10.9173778 6.96813333,10.9203111 6.94613333,10.9203111 L6.94613333,10.9203111 Z M5.5,9.16715556 C6.24995556,9.16715556 6.90555556,9.66631111 7.12604444,10.3654222 C7.35582222,10.2891556 7.57826667,10.1972444 7.79044444,10.0911556 C7.45115556,9.43995556 7.56164444,8.62351111 8.09208889,8.09257778 C8.60982222,7.57533333 9.44533333,7.45457778 10.0906667,7.79093333 C10.1967556,7.5768 10.2881778,7.35435556 10.3649333,7.12653333 C9.66484444,6.90604444 9.16666667,6.24995556 9.16666667,5.50048889 C9.16666667,4.75053333 9.66582222,4.09493333 10.3649333,3.87493333 C10.2886667,3.64515556 10.1967556,3.42271111 10.0906667,3.21004444 C9.44435556,3.5464 8.60884444,3.42417778 8.09208889,2.9084 C7.56164444,2.37746667 7.45066667,1.56102222 7.79044444,0.909822222 C7.57777778,0.803733333 7.35533333,0.713288889 7.12604444,0.635555556 C6.90555556,1.33515556 6.24995556,1.83382222 5.5,1.83382222 C4.75004444,1.83382222 4.09444444,1.33417778 3.87395556,0.635555556 C3.64417778,0.711822222 3.42173333,0.803733333 3.20906667,0.909822222 C3.54835556,1.56102222 3.43786667,2.37746667 2.90742222,2.9084 C2.39115556,3.42564444 1.55613333,3.54835556 0.909333333,3.20955556 C0.802755556,3.42368889 0.711333333,3.64613333 0.635066667,3.87444444 C1.33466667,4.09493333 1.83333333,4.75053333 1.83333333,5.50048889 C1.83333333,6.24995556 1.33417778,6.90604444 0.635066667,7.12653333 C0.711333333,7.35582222 0.803244444,7.57826667 0.909333333,7.79093333 C1.55515556,7.45457778 2.39066667,7.5768 2.90742222,8.09257778 C3.43786667,8.62351111 3.54884444,9.43995556 3.20906667,10.0911556 C3.42173333,10.1972444 3.64417778,10.2876889 3.87395556,10.3654222 C4.09444444,9.66631111 4.75004444,9.16715556 5.5,9.16715556 L5.5,9.16715556 Z" id="Shape"></path>
                            <path d="M5.5,7.2116 C4.55644444,7.2116 3.78888889,6.44404444 3.78888889,5.50048889 C3.78888889,4.55693333 4.55644444,3.78937778 5.5,3.78937778 C6.44355556,3.78937778 7.21111111,4.55693333 7.21111111,5.50048889 C7.21111111,6.44404444 6.44355556,7.2116 5.5,7.2116 L5.5,7.2116 Z M5.5,4.27826667 C4.82631111,4.27826667 4.27777778,4.82631111 4.27777778,5.50048889 C4.27777778,6.17466667 4.82631111,6.72271111 5.5,6.72271111 C6.17368889,6.72271111 6.72222222,6.17466667 6.72222222,5.50048889 C6.72222222,4.82631111 6.17368889,4.27826667 5.5,4.27826667 L5.5,4.27826667 Z" id="Shape"></path>
                            <path d="M5.5,8.67826667 C3.74782222,8.67826667 2.32222222,7.25266667 2.32222222,5.50048889 C2.32222222,3.74831111 3.74782222,2.32271111 5.5,2.32271111 C7.25217778,2.32271111 8.67777778,3.74831111 8.67777778,5.50048889 C8.67777778,7.25266667 7.25217778,8.67826667 5.5,8.67826667 L5.5,8.67826667 Z M5.5,2.8116 C4.0172,2.8116 2.81111111,4.01817778 2.81111111,5.50048889 C2.81111111,6.9828 4.0172,8.18937778 5.5,8.18937778 C6.9828,8.18937778 8.18888889,6.9828 8.18888889,5.50048889 C8.18888889,4.01817778 6.9828,2.8116 5.5,2.8116 L5.5,2.8116 Z" id="Shape"></path>
                        </g>
                    </g>
                </g>
            </g>
        </g>
    </g>
</svg>