<?xml version="1.0" encoding="UTF-8" standalone="no"?>
<svg width="11px" height="12px" viewBox="0 0 11 12" version="1.1" xmlns="http://www.w3.org/2000/svg" xmlns:xlink="http://www.w3.org/1999/xlink" xmlns:sketch="http://www.bohemiancoding.com/sketch/ns">
    <!-- Generator: Sketch 3.3.2 (12043) - http://www.bohemiancoding.com/sketch -->
    <title>icon attach</title>
    <desc>Created with Sketch.</desc>
    <defs></defs>
    <g id="Tasks" stroke="none" stroke-width="1" fill="none" fill-rule="evenodd" sketch:type="MSPage">
        <g id="Tasks-V3" sketch:type="MSArtboardGroup" transform="translate(-466.000000, -1084.000000)" fill="#454444">
            <g id="Sample-Page" sketch:type="MSLayerGroup" transform="translate(412.000000, 110.000000)">
                <g id="Attach-Documents" transform="translate(38.000000, 965.000000)" sketch:type="MSShapeGroup">
                    <g id="Attach-Documents-+-Attachment-256" transform="translate(16.000000, 8.000000)">
                        <g id="icon-attach" transform="translate(0.000000, 1.000000)">
                            <path d="M2.60092105,11.8353 C2.08334211,11.8353 1.58544737,11.6133 1.19176316,11.2047 C1.02213158,11.0289 1.02213158,10.7439 1.19176316,10.5684 C1.36139474,10.3926 1.63610526,10.3926 1.80573684,10.5684 C2.04947368,10.821 2.33894737,10.9458 2.64347368,10.9344 C2.95957895,10.9206 3.27365789,10.761 3.55184211,10.4727 L9.45913158,4.3506 C10.1666053,3.6171 10.1666053,2.4237 9.45913158,1.6902 L9.42092105,1.6503 C8.71373684,0.918 7.56221053,0.9183 6.85502632,1.6515 C6.85502632,1.6515 1.24473684,7.4664 0.947447368,7.7742 C0.777815789,7.9494 0.502815789,7.9497 0.333184211,7.7739 C0.163842105,7.5978 0.163842105,7.3131 0.333473684,7.1373 C0.630763158,6.8295 6.24105263,1.0152 6.24105263,1.0152 C7.28692105,-0.0687 8.98960526,-0.0693 10.0360526,1.0152 L10.0742632,1.0551 C10.5799737,1.5792 10.8593158,2.2776 10.8593158,3.0207 C10.8593158,3.7635 10.5799737,4.4619 10.0731053,4.9872 L4.16581579,11.109 C3.73131579,11.5596 3.2175,11.8101 2.67994737,11.8335 C2.65360526,11.8347 2.62726316,11.8353 2.60092105,11.8353 L2.60092105,11.8353 Z" id="Shape"></path>
                            <path d="M1.49889474,11.3367 C1.38773684,11.3367 1.27657895,11.2929 1.19176316,11.205 C1.089,11.0985 0.745394737,10.7043 0.649289474,10.1163 C0.574026316,9.6576 0.633368421,8.9568 1.34142105,8.2233 C1.44621053,8.1141 7.05997368,2.2965 7.05997368,2.2965 C7.54107895,1.7985 8.32294737,1.7985 8.80347368,2.2965 C9.29731579,2.8086 9.29731579,3.6192 8.81678947,4.1172 L3.07971053,10.0632 C2.91007895,10.239 2.63536842,10.239 2.46573684,10.0632 C2.29610526,9.8874 2.29610526,9.6027 2.46573684,9.4269 L8.20281579,3.4812 C8.34465789,3.3339 8.34465789,3.0942 8.20252632,2.9469 C8.04736842,2.7855 7.8155,2.7861 7.67394737,2.9334 C7.67394737,2.9331 2.06134211,8.7501 1.95597368,8.8596 C1.59760526,9.2307 1.44621053,9.603 1.50555263,9.966 C1.56113158,10.3068 1.78084211,10.5429 1.80573684,10.5687 C1.97536842,10.7445 1.97536842,11.0292 1.80573684,11.205 C1.72092105,11.2929 1.61005263,11.3367 1.49889474,11.3367 L1.49889474,11.3367 Z" id="Shape"></path>
                        </g>
                    </g>
                </g>
            </g>
        </g>
    </g>
</svg>