<?xml version="1.0" encoding="UTF-8" standalone="no"?>
<svg width="10px" height="11px" viewBox="0 0 10 11" version="1.1" xmlns="http://www.w3.org/2000/svg" xmlns:xlink="http://www.w3.org/1999/xlink" xmlns:sketch="http://www.bohemiancoding.com/sketch/ns">
    <!-- Generator: Sketch 3.3.2 (12043) - http://www.bohemiancoding.com/sketch -->
    <title>icon user@2x</title>
    <desc>Created with Sketch.</desc>
    <defs></defs>
    <g id="Admin" stroke="none" stroke-width="1" fill="none" fill-rule="evenodd" sketch:type="MSPage">
        <g id="Admin/Workflow-Dashboard" sketch:type="MSArtboardGroup" transform="translate(-26.000000, -148.000000)" fill="#F5F5F5">
            <g id="Sidebar" sketch:type="MSLayerGroup" transform="translate(0.000000, 50.000000)">
                <g id="Tasks-Navigation" transform="translate(0.000000, 57.000000)" sketch:type="MSShapeGroup">
                    <g id="Group" transform="translate(24.000000, 10.000000)">
                        <g id="icon-user" transform="translate(2.000000, 31.000000)">
                            <path d="M3.39209302,8.7372766 C3.38232558,8.7372766 3.37209302,8.7372766 3.36186047,8.73540426 C3.28883721,8.72557447 3.22465116,8.68251064 3.18883721,8.61744681 L1.63069767,5.79817021 C1.56837209,5.68489362 1.60883721,5.54259574 1.72093023,5.47940426 C1.83348837,5.41714894 1.97488372,5.45740426 2.0372093,5.5692766 L3.4427907,8.11378723 L4.83302326,6.66459574 C4.92232558,6.57238298 5.07023256,6.56957447 5.16186047,6.65804255 C5.25395349,6.74744681 5.25674419,6.89582979 5.16790698,6.98897872 L3.55953488,8.6647234 C3.51534884,8.71246809 3.4544186,8.7372766 3.39209302,8.7372766 L3.39209302,8.7372766 Z" id="Shape"></path>
                            <path d="M6.60790698,8.7372766 C6.54511628,8.7372766 6.48465116,8.71153191 6.44093023,8.66706383 L4.83302326,6.99131915 C4.74418605,6.89817021 4.74651163,6.74885106 4.83906977,6.66038298 C4.93116279,6.57097872 5.07906977,6.57238298 5.16790698,6.666 L6.55767442,8.11519149 L7.96325581,5.57114894 C8.02511628,5.45880851 8.16697674,5.41761702 8.27953488,5.4812766 C8.39116279,5.544 8.43209302,5.68629787 8.36930233,5.79957447 L6.81116279,8.61885106 C6.77534884,8.68485106 6.71116279,8.72651064 6.63813953,8.73774468 C6.62883721,8.7372766 6.61813953,8.7372766 6.60790698,8.7372766 L6.60790698,8.7372766 Z" id="Shape"></path>
                            <path d="M5,7.06153191 C3.42790698,7.06153191 2.15209302,4.59331915 2.15209302,2.9826383 C2.15209302,1.40191489 3.42976744,0.116553191 5,0.116553191 C6.56976744,0.116553191 7.84697674,1.40191489 7.84697674,2.9826383 C7.84697674,4.59331915 6.57162791,7.06153191 5,7.06153191 L5,7.06153191 Z M5,0.584638298 C3.68604651,0.584638298 2.6172093,1.65982979 2.6172093,2.9826383 C2.6172093,4.34242553 3.73116279,6.59344681 5,6.59344681 C6.26883721,6.59344681 7.38186047,4.34242553 7.38186047,2.9826383 C7.38186047,1.65982979 6.31348837,0.584638298 5,0.584638298 L5,0.584638298 Z" id="Shape"></path>
                            <path d="M6.31813953,10.8820426 C6.11209302,10.8820426 5.89953488,10.8811064 5.68139535,10.879234 L5.00093023,10.8764255 L4.32,10.879234 C2.56651163,10.8946809 1.18046512,10.8993617 0.48744186,10.2061277 C0.20372093,9.92293617 0.06,9.53302128 0.06,9.05323404 C0.06,7.81468085 1.06139535,5.75931915 2.67860465,4.60034043 L2.94837209,4.98089362 C1.49860465,6.01957447 0.525116279,7.92514894 0.525116279,9.05229787 C0.525116279,9.40897872 0.62,9.67765957 0.815348837,9.87238298 C1.37162791,10.4284681 2.73767442,10.4191064 4.3172093,10.4088085 L5.00093023,10.406 L5.68418605,10.4088085 C7.26465116,10.4195745 8.62930233,10.428 9.18511628,9.87238298 C9.38046512,9.6767234 9.47488372,9.40804255 9.47488372,9.0513617 C9.47488372,7.92421277 8.50139535,6.0186383 7.05209302,4.97995745 L7.32186047,4.59940426 C8.93906977,5.75838298 9.94,7.81280851 9.94,9.05229787 C9.94,9.53302128 9.79627907,9.92059574 9.51302326,10.2051915 C8.90511628,10.8137021 7.76790698,10.8820426 6.31813953,10.8820426 L6.31813953,10.8820426 Z" id="Shape"></path>
                        </g>
                    </g>
                </g>
            </g>
        </g>
    </g>
</svg>